HG00096	0.733023285905929
HG00097	0.0894173397137297
HG00099	0.948786883074469
HG00100	0.221738525894124
HG00101	0.577636397477021
HG00102	0.825530202866755
HG00103	0.0598664082266268
HG00105	0.224256389490914
HG00106	0.378439048250958
HG00107	0.864138961970967
HG00108	0.318969800989753
HG00109	0.934644473145969
HG00110	0.998656237526551
HG00111	0.0117146765058502
HG00112	3.5785727692983e-05
HG00113	0.964224038838663
HG00114	0.000964994893806321
HG00115	0.343733524339301
HG00116	0.155390816221975
HG00117	0.070374695223494
HG00118	0.137142835213601
HG00119	0.652846182423692
HG00120	0.160819316923435
HG00121	0.185018088116538
HG00122	0.879259737276506
HG00123	0.797177435223682
HG00125	0.997373454313617
HG00126	0.13148658632289
HG00127	0.966700722044891
HG00128	0.46367138648458
HG00129	0.346193455696585
HG00130	0.585849914771439
HG00131	0.0435638567921731
HG00132	0.985507946510819
HG00133	0.225644432540887
HG00136	0.610929548017747
HG00137	0.673652781181746
HG00138	0.0107201084648432
HG00139	0.0961286368748935
HG00140	0.525544670649791
HG00141	0.815779502696298
HG00142	0.0207844195299606
HG00143	0.00258982689293168
HG00145	0.881141316632635
HG00146	NA
HG00148	0.0766484806656793
HG00149	0.977839744352742
HG00150	0.469406499157152
HG00151	0.0219937247189178
HG00155	0.957602718951334
HG00157	0.571278447023769
HG00158	0.654797442190515
HG00159	0.115033692920476
HG00160	0.715036985987831
HG00171	0.934921578137071
HG00173	0.999727875846831
HG00174	0.998594696967309
HG00176	0.547350655809709
HG00177	0.0205832239050433
HG00178	0.724653535830206
HG00179	0.149334698305746
HG00180	0.613574043810976
HG00181	8.10428304387358e-06
HG00182	0.831384431987075
HG00183	0.504738276144417
HG00185	0.339715209375406
HG00186	0.0579518966990796
HG00187	0.00575530948133863
HG00188	0.95595935861848
HG00189	0.913252576106285
HG00190	0.0933238326800784
HG00231	0.0488796536827485
HG00232	0.0795582111840531
HG00233	0.487699448563552
HG00234	0.715807879405053
HG00235	0.0364084076214781
HG00236	NA
HG00237	0.318695203146354
HG00238	0.00420557093606789
HG00239	0.936601688219691
HG00240	0.282061552928884
HG00242	0.0609902537772889
HG00243	0.712643058207724
HG00244	0.136576518549843
HG00245	0.909774427088146
HG00246	0.00137168410675334
HG00250	0.853238741518842
HG00251	0.680625315581296
HG00252	0.281118556705898
HG00253	0.963024288551776
HG00254	0.883996629660049
HG00255	0.225483751892041
HG00256	0.460354304125968
HG00257	0.522586374891493
HG00258	0.266439425963278
HG00259	0.793825226826879
HG00260	0.0258123967712289
HG00261	0.565766584219739
HG00262	0.0173722281657983
HG00263	0.305072245122636
HG00264	0.452105480206403
HG00265	0.438100112190658
HG00266	NA
HG00267	0.794451671354104
HG00268	0.485450992491162
HG00269	0.514973254738332
HG00271	0.115408669528039
HG00272	0.746115096278833
HG00273	0.933943404762895
HG00274	0.000262142417653688
HG00275	0.904971169484057
HG00276	0.0413892877622161
HG00277	0.00254175047173989
HG00278	0.00369798371715896
HG00280	0.0547938633824546
HG00281	0.922002247798353
HG00282	0.99636281427047
HG00284	0.0260016143926335
HG00285	0.557002880458581
HG00288	0.337333638261094
HG00290	0.292617931622409
HG00304	0.668034733729738
HG00306	0.0250581207717164
HG00308	0.12762265245841
HG00309	0.491276639869026
HG00310	0.917820559240595
HG00311	0.570261029515935
HG00313	NA
HG00315	0.110939312517057
HG00318	0.919043863546938
HG00319	0.745461570275878
HG00320	0.988185903306548
HG00321	0.514290076595172
HG00323	0.723792936508216
HG00324	0.417214680019009
HG00325	0.0461311768049942
HG00326	0.665462107102745
HG00327	0.485702823165436
HG00328	0.952046483508726
HG00329	0.522518754330969
HG00330	0.942037140495271
HG00331	0.0113598033704652
HG00332	0.621078290554426
HG00334	0.9587121285608
HG00335	0.812336784469192
HG00336	0.589611496879656
HG00337	0.999776911716188
HG00338	0.276225120285035
HG00339	0.381900527149754
HG00341	0.886842207398725
HG00342	0.988643717092423
HG00343	0.333545540171466
HG00344	0.380945942576015
HG00345	0.930763523676809
HG00346	0.998973159472017
HG00349	0.952023244602983
HG00350	0.371712311739357
HG00351	0.473882592324522
HG00353	0.644639664416148
HG00355	0.53007635481215
HG00356	0.0422633489793113
HG00357	0.232295924410034
HG00358	0.550421850735146
HG00360	0.733996395448824
HG00362	0.999568932648045
HG00364	0.6425954350956
HG00365	0.78117004531185
HG00366	0.909989254742378
HG00367	0.164893078828379
HG00368	0.605777628820426
HG00369	0.823201452996596
HG00371	0.0949117325480849
HG00372	0.490195535750629
HG00373	0.480521436743782
HG00375	0.00431034875108046
HG00376	0.0881018906852151
HG00378	0.0243313519814028
HG00379	0.610001571358603
HG00380	0.998892494360407
HG00381	0.560796755945547
HG00382	0.138030814497355
HG00383	0.0200542855620907
HG00384	0.674590323430472
HG01334	0.088430563525958
HG01500	0.756512825024403
HG01501	0.990559364679046
HG01503	0.101237849088201
HG01504	0.752624078816872
HG01506	0.381192671082861
HG01507	0.0653867754550051
HG01509	0.0204325900059946
HG01510	0.0219757987869909
HG01512	0.03668692082947
HG01513	0.616199908341755
HG01515	0.999743578051217
HG01516	0.00241686918624886
HG01518	0.333144733764889
HG01519	0.906743922118196
HG01521	0.479654566150543
HG01522	0.75667337963463
HG01524	0.56982725708543
HG01525	0.427882438386805
HG01527	0.21223626490782
HG01528	0.362031542407191
HG01530	0.475882083474088
HG01531	0.750133258084331
HG01536	0.469152520082039
HG01537	0.273959411756766
HG01602	0.0606934619688007
HG01603	0.887623297287864
HG01605	0.251028704344411
HG01606	0.272969715725682
HG01607	0.450989715410697
HG01608	0.509310133151514
HG01610	0.808923369943643
HG01612	0.876463827002973
HG01613	0.767180822900129
HG01615	0.852594830738124
HG01617	0.662561021391453
HG01618	0.625842337652556
HG01619	0.359544617718563
HG01620	0.0146587800918221
HG01623	0.989986561979794
HG01624	0.832671664817362
HG01625	0.595843763729021
HG01626	0.511978863115875
HG01628	0.226825313324169
HG01630	0.0174041228479566
HG01631	0.714238076996335
HG01632	0.925439662205263
HG01668	0.927261355699903
HG01669	0.45736276776835
HG01670	0.231866487008047
HG01672	0.113642993943324
HG01673	0.999693641699158
HG01675	0.0197749621201718
HG01676	0.121371591746384
HG01678	0.631901778291099
HG01679	0.203043638507977
HG01680	0.112437885005163
HG01682	0.0206164980595185
HG01684	0.087903664572278
HG01685	0.478754776685003
HG01686	0.872736083064185
HG01694	0.00354138484391674
HG01695	0.159528074996638
HG01697	0.976420055125889
HG01699	9.16823798250448e-05
HG01700	0.07965393632156
HG01702	0.96296351837687
HG01704	0.998347782097701
HG01705	0.232180679789634
HG01707	0.00384954918188313
HG01708	0.634416972689957
HG01709	0.969817841733572
HG01710	0.915901983331848
HG01746	0.458597765509064
HG01747	0.132460962257456
HG01756	0.622877886355321
HG01757	0.676147059807547
HG01761	0.9613742335461
HG01762	0.238488273976834
HG01765	0.0305152068805083
HG01766	0.587225711901903
HG01767	0.0830005740375599
HG01768	0.908244838006274
HG01770	0.13583407352873
HG01771	0.0444803205668078
HG01773	0.278535843032332
HG01775	0.0471158593507327
HG01776	0.971838495553953
HG01777	0.0509637997354221
HG01779	0.515055683861342
HG01781	0.955704166976011
HG01783	0.960550361588115
HG01784	0.00199307026492339
HG01785	0.0135383234855628
HG01786	0.974924176163844
HG01789	0.618707196804465
HG01790	0.0909483360825244
HG01791	0.379926449951412
HG02215	0.689354339091704
HG02219	0.521637715099297
HG02220	0.00852066726849046
HG02221	0.019277907478952
HG02223	0.000170467305360564
HG02224	0.993706025022058
HG02230	-0.93
HG02231	0.750778965633533
HG02232	0.0155920278085212
HG02233	0.495038785622379
HG02235	0.904840374124987
HG02236	0.262205515832406
HG02238	3.23978277542632e-07
HG02239	0.918573891998698
NA06984	0.46872730444755
NA06985	0.186809768390053
NA06986	0.551392998901258
NA06989	0.982196983442048
NA06994	0.755389927163769
NA07000	0.607105774432489
NA07037	0.994420456885672
NA07048	0.0217186259595299
NA07051	0.999485575950922
NA07056	NA
NA07347	0.848577455283969
NA07357	0.957464110386455
NA10847	0.262565388493571
NA10851	0.790817648799153
NA11829	0.581040838513081
NA11830	0.899704265306106
NA11831	0.488245527569888
NA11832	0.569651469880052
NA11840	0.973659721719067
NA11843	0.0254328945218165
NA11881	0.00746301499606473
NA11892	0.871950237363945
NA11893	0.0171568735095882
NA11894	0.99361522200646
NA11918	0.992677333704235
NA11919	0.71248581638108
NA11920	0.107547693399726
NA11930	0.699869125272672
NA11931	0.576096725910731
NA11932	0.0452626817973838
NA11933	0.339505758399027
NA11992	0.0566633223538263
NA11994	0.171298180359498
NA11995	0.0674822139016193
NA12003	0.96122255901987
NA12004	0.960712033817238
NA12005	0.474345105642462
NA12006	0.011139734603081
NA12043	0.306573897124536
NA12044	0.858176782879292
NA12045	0.004622742634409
NA12046	0.883134463819451
NA12058	0.207043604237309
NA12144	0.221765479186313
NA12154	0.764623652508561
NA12155	0.0840725684465542
NA12156	0.994035047138841
NA12234	0.00879309202548738
NA12249	0.673277397589942
NA12272	0.881449785029786
NA12273	0.116737501330875
NA12275	0.796058692842208
NA12282	0.000501522240471321
NA12283	0.817018375182594
NA12286	0.951784691151122
NA12287	0.222496068245031
NA12340	0.620887933512952
NA12341	0.56511669466069
NA12342	0.294760148405552
NA12347	0.175045811962096
NA12348	0.128304372206293
NA12383	0.51824969691422
NA12399	0.552700493694517
NA12400	0.777089563757029
NA12413	0.126446135848615
NA12414	0.17229639718059
NA12489	0.555702646724592
NA12546	0.999026750172174
NA12716	0.0520697112093957
NA12717	0.976947466604005
NA12718	0.12311666184742
NA12748	0.990825539757818
NA12749	0.990733968152526
NA12750	0.853607317150375
NA12751	0.592569516167633
NA12760	0.000632355876758814
NA12761	0.999966822572854
NA12762	0.264831074523982
NA12763	0.75979491551586
NA12775	0.119595426401231
NA12776	0.0337139954607186
NA12777	0.734298192540296
NA12778	0.674153013356522
NA12812	0.0797447582777089
NA12813	0.660591040719808
NA12814	0.729233907514762
NA12815	0.0514496232624407
NA12827	0.00420964598804661
NA12828	0.250375604350377
NA12829	0.399639937889704
NA12830	0.443229526350813
NA12842	0.267017153113722
NA12843	0.14061482551623
NA12872	0.0483789405171496
NA12873	0.999227006483434
NA12874	0.379589266382151
NA12878	0.0698052402945514
NA12889	0.0182481939991045
NA12890	0.367604467134967
NA20502	0.962551559756266
NA20503	0.584681291744138
NA20504	0.622035464777272
NA20505	0.991833470925802
NA20507	0.0656840469857407
NA20508	0.664452650304416
NA20509	0.342458508410068
NA20510	0.0392508163988229
NA20511	0.624529351138636
NA20512	0.56050656826674
NA20513	0.118165604361901
NA20514	0.293760594245006
NA20515	0.966028585115339
NA20516	0.260500343004848
NA20517	0.776780757472092
NA20518	0.862428339358172
NA20519	0.114117891532713
NA20520	0.0476203863874168
NA20521	0.00117727781895112
NA20522	0.490851762438203
NA20524	0.834992764617222
NA20525	0.7631550457062
NA20527	0.0525126886847037
NA20528	0.971139332740043
NA20529	0.664199638445471
NA20531	0.0642097475812157
NA20532	-0.34
NA20534	0.184843819416127
NA20535	0.0349711677575332
NA20536	0.136001615873633
NA20538	0.119695395391773
NA20539	0.999719253758379
NA20540	0.142786430829853
NA20541	0.00583114076662235
NA20542	0.692743103081334
NA20543	0.0195710924781178
NA20544	0.736445513051741
NA20581	0.0440421156337542
NA20582	0.241066571463898
NA20585	0.78835458520388
NA20586	0.110944787996691
NA20587	0.158789660306616
NA20588	0.592845915655603
NA20589	0.103578722014238
NA20752	0.108955220337452
NA20753	0.0902127542814549
NA20754	0.962574709738999
NA20755	0.125479138590156
NA20756	0.605097316632819
NA20757	0.147996022261703
NA20758	0.0830621910163132
NA20759	0.399350868504596
NA20760	0.0217790066710016
NA20761	0.959222861345622
NA20762	0.575947429357373
NA20763	0.0083248923856209
NA20764	0.913349358849545
NA20765	0.999616638405326
NA20766	0.948996910719517
NA20767	0.550406224562447
NA20768	0.966152040704854
NA20769	0.530729811449308
NA20770	0.362539686828707
NA20771	0.402374407082167
NA20772	0.742050485791919
NA20773	0.367805218020596
NA20774	0.232321668744856
NA20775	0.885883854801292
NA20778	0.93100674753555
NA20783	0.472097923729439
NA20785	0.584975692591545
NA20786	0.420564405815218
NA20787	0.208485842316363
NA20790	0.963106122284752
NA20792	0.911738974148848
NA20795	0.352633340412297
NA20796	0.0917994314643989
NA20797	0.478591622850121
NA20798	0.987441162548101
NA20799	0.0770988519002645
NA20800	0.896158385194847
NA20801	0.898009113666289
NA20802	0.875324900720771
NA20803	0.362922085605823
NA20804	0.998374065827587
NA20805	0.696906568997053
NA20806	0.320182740900768
NA20807	0.117926000575888
NA20808	0.601839377622313
NA20809	0.0203151221100691
NA20810	0.271777985776878
NA20811	0.964686841720741
NA20812	0.113191713035985
NA20813	0.00836604292272068
NA20814	0.00265713134503774
NA20815	0.992553280836971
NA20818	0.956470503465609
NA20819	0.170954192875487
NA20821	0.487607104082896
NA20822	0.901801574810563
NA20826	0.205365122510684
NA20827	0.00763846042563077
NA20828	0.317734715805225
NA20832	0.206419203622205
